<?xml version="1.0" encoding="UTF-8"?>
<!DOCTYPE svg PUBLIC '-//W3C//DTD SVG 1.0//EN'
          'http://www.w3.org/TR/2001/REC-SVG-20010904/DTD/svg10.dtd'>
<svg fill-opacity="1" xmlns:xlink="http://www.w3.org/1999/xlink" color-rendering="auto" color-interpolation="auto" text-rendering="auto" stroke="black" stroke-linecap="square" width="1130" stroke-miterlimit="10" shape-rendering="auto" stroke-opacity="1" fill="black" stroke-dasharray="none" font-weight="normal" stroke-width="1" viewBox="-20 0 1130 620" height="620" xmlns="http://www.w3.org/2000/svg" font-family="&apos;Dialog&apos;" font-style="normal" stroke-linejoin="miter" font-size="12" stroke-dashoffset="0" image-rendering="auto"
><!--Generated by the Batik Graphics2D SVG Generator--><defs id="genericDefs"
  /><g
  ><defs id="defs1"
    ><clipPath clipPathUnits="userSpaceOnUse" id="clipPath1"
      ><path d="M0 0 L2147483647 0 L2147483647 2147483647 L0 2147483647 L0 0 Z"
      /></clipPath
      ><clipPath clipPathUnits="userSpaceOnUse" id="clipPath2"
      ><path d="M0 0 L0 60 L160 60 L160 0 Z"
      /></clipPath
      ><clipPath clipPathUnits="userSpaceOnUse" id="clipPath3"
      ><path d="M-0.5 -0.5 L-0.5 59.5 L159.5 59.5 L159.5 -0.5 Z"
      /></clipPath
      ><clipPath clipPathUnits="userSpaceOnUse" id="clipPath4"
      ><path d="M0 0 L0 80 L160 80 L160 0 Z"
      /></clipPath
      ><clipPath clipPathUnits="userSpaceOnUse" id="clipPath5"
      ><path d="M-0.5 -0.5 L-0.5 79.5 L159.5 79.5 L159.5 -0.5 Z"
      /></clipPath
      ><clipPath clipPathUnits="userSpaceOnUse" id="clipPath6"
      ><path d="M0 0 L0 70 L160 70 L160 0 Z"
      /></clipPath
      ><clipPath clipPathUnits="userSpaceOnUse" id="clipPath7"
      ><path d="M-0.5 -0.5 L-0.5 69.5 L159.5 69.5 L159.5 -0.5 Z"
      /></clipPath
      ><clipPath clipPathUnits="userSpaceOnUse" id="clipPath8"
      ><path d="M0 0 L0 50 L160 50 L160 0 Z"
      /></clipPath
      ><clipPath clipPathUnits="userSpaceOnUse" id="clipPath9"
      ><path d="M-0.5 -0.5 L-0.5 49.5 L159.5 49.5 L159.5 -0.5 Z"
      /></clipPath
      ><clipPath clipPathUnits="userSpaceOnUse" id="clipPath10"
      ><path d="M0 0 L0 30 L160 30 L160 0 Z"
      /></clipPath
      ><clipPath clipPathUnits="userSpaceOnUse" id="clipPath11"
      ><path d="M-0.5 -0.5 L-0.5 29.5 L159.5 29.5 L159.5 -0.5 Z"
      /></clipPath
      ><clipPath clipPathUnits="userSpaceOnUse" id="clipPath12"
      ><path d="M0 0 L0 30 L100 30 L100 0 Z"
      /></clipPath
      ><clipPath clipPathUnits="userSpaceOnUse" id="clipPath13"
      ><path d="M-0.5 -0.5 L-0.5 29.5 L99.5 29.5 L99.5 -0.5 Z"
      /></clipPath
      ><clipPath clipPathUnits="userSpaceOnUse" id="clipPath14"
      ><path d="M0 0 L0 100 L160 100 L160 0 Z"
      /></clipPath
      ><clipPath clipPathUnits="userSpaceOnUse" id="clipPath15"
      ><path d="M-0.5 -0.5 L-0.5 99.5 L159.5 99.5 L159.5 -0.5 Z"
      /></clipPath
      ><clipPath clipPathUnits="userSpaceOnUse" id="clipPath16"
      ><path d="M0 0 L0 120 L90 120 L90 0 Z"
      /></clipPath
      ><clipPath clipPathUnits="userSpaceOnUse" id="clipPath17"
      ><path d="M0 0 L0 140 L90 140 L90 0 Z"
      /></clipPath
      ><clipPath clipPathUnits="userSpaceOnUse" id="clipPath18"
      ><path d="M0 0 L0 50 L180 50 L180 0 Z"
      /></clipPath
      ><clipPath clipPathUnits="userSpaceOnUse" id="clipPath19"
      ><path d="M0 0 L0 120 L70 120 L70 0 Z"
      /></clipPath
      ><clipPath clipPathUnits="userSpaceOnUse" id="clipPath20"
      ><path d="M0 0 L0 120 L60 120 L60 0 Z"
      /></clipPath
      ><clipPath clipPathUnits="userSpaceOnUse" id="clipPath21"
      ><path d="M0 0 L0 50 L170 50 L170 0 Z"
      /></clipPath
      ><clipPath clipPathUnits="userSpaceOnUse" id="clipPath22"
      ><path d="M0 0 L0 160 L270 160 L270 0 Z"
      /></clipPath
      ><clipPath clipPathUnits="userSpaceOnUse" id="clipPath23"
      ><path d="M0 0 L0 140 L220 140 L220 0 Z"
      /></clipPath
      ><clipPath clipPathUnits="userSpaceOnUse" id="clipPath24"
      ><path d="M0 0 L0 120 L210 120 L210 0 Z"
      /></clipPath
      ><clipPath clipPathUnits="userSpaceOnUse" id="clipPath25"
      ><path d="M0 0 L0 50 L190 50 L190 0 Z"
      /></clipPath
    ></defs
    ><g fill="rgb(255,255,255)" fill-opacity="0" transform="translate(630,210)" stroke-opacity="0" stroke="rgb(255,255,255)"
    ><rect x="0.5" width="158.5" height="58.5" y="0.5" clip-path="url(#clipPath2)" stroke="none"
    /></g
    ><g transform="translate(630.5,210.5)"
    ><rect fill="none" x="0.5" width="158.5" height="58.5" y="0.5" clip-path="url(#clipPath3)"
      /><text x="61" font-size="14" y="18.1094" clip-path="url(#clipPath3)" font-family="sans-serif" stroke="none" xml:space="preserve"
      >Level</text
      ><path fill="none" d="M1 24.1094 L159 24.1094" clip-path="url(#clipPath3)"
      /><text x="5" font-size="14" y="39.2188" clip-path="url(#clipPath3)" font-family="sans-serif" stroke="none" xml:space="preserve"
      >difficulty</text
      ><text x="5" font-size="14" y="55.3281" clip-path="url(#clipPath3)" font-family="sans-serif" stroke="none" xml:space="preserve"
      >nbPlayers</text
    ></g
    ><g fill="rgb(255,255,255)" fill-opacity="0" transform="translate(930,30)" stroke-opacity="0" stroke="rgb(255,255,255)"
    ><rect x="0.5" width="158.5" height="78.5" y="0.5" clip-path="url(#clipPath4)" stroke="none"
    /></g
    ><g transform="translate(930.5,30.5)"
    ><rect fill="none" x="0.5" width="158.5" height="78.5" y="0.5" clip-path="url(#clipPath5)"
      /><text x="58" font-size="14" y="18.1094" clip-path="url(#clipPath5)" font-family="sans-serif" stroke="none" xml:space="preserve"
      >Bonus</text
      ><path fill="none" d="M1 24.1094 L159 24.1094" clip-path="url(#clipPath5)"
      /><text x="5" font-size="14" y="39.2188" clip-path="url(#clipPath5)" font-family="sans-serif" stroke="none" xml:space="preserve"
      >name</text
      ><text x="5" font-size="14" y="55.3281" clip-path="url(#clipPath5)" font-family="sans-serif" stroke="none" xml:space="preserve"
      >effect</text
      ><text x="5" font-size="14" y="71.4375" clip-path="url(#clipPath5)" font-family="sans-serif" stroke="none" xml:space="preserve"
      >position</text
    ></g
    ><g fill="rgb(255,255,255)" fill-opacity="0" transform="translate(930,200)" stroke-opacity="0" stroke="rgb(255,255,255)"
    ><rect x="0.5" width="158.5" height="68.5" y="0.5" clip-path="url(#clipPath6)" stroke="none"
    /></g
    ><g transform="translate(930.5,200.5)"
    ><rect fill="none" x="0.5" width="158.5" height="68.5" y="0.5" clip-path="url(#clipPath7)"
      /><text x="65" font-size="14" y="18.1094" clip-path="url(#clipPath7)" font-family="sans-serif" stroke="none" xml:space="preserve"
      >Map</text
      ><path fill="none" d="M1 24.1094 L159 24.1094" clip-path="url(#clipPath7)"
      /><text x="5" font-size="14" y="39.2188" clip-path="url(#clipPath7)" font-family="sans-serif" stroke="none" xml:space="preserve"
      >width</text
      ><text x="5" font-size="14" y="55.3281" clip-path="url(#clipPath7)" font-family="sans-serif" stroke="none" xml:space="preserve"
      >height</text
    ></g
    ><g fill="rgb(255,255,255)" fill-opacity="0" transform="translate(620,500)" stroke-opacity="0" stroke="rgb(255,255,255)"
    ><rect x="0.5" width="158.5" height="78.5" y="0.5" clip-path="url(#clipPath4)" stroke="none"
    /></g
    ><g transform="translate(620.5,500.5)"
    ><rect fill="none" x="0.5" width="158.5" height="78.5" y="0.5" clip-path="url(#clipPath5)"
      /><text x="59" font-size="14" y="18.1094" clip-path="url(#clipPath5)" font-family="sans-serif" stroke="none" xml:space="preserve"
      >Client</text
      ><path fill="none" d="M1 24.1094 L159 24.1094" clip-path="url(#clipPath5)"
      /><text x="5" font-size="14" y="39.2188" clip-path="url(#clipPath5)" font-family="sans-serif" stroke="none" xml:space="preserve"
      >name</text
      ><text x="5" font-size="14" y="55.3281" clip-path="url(#clipPath5)" font-family="sans-serif" stroke="none" xml:space="preserve"
      >id</text
      ><text x="5" font-size="14" y="71.4375" clip-path="url(#clipPath5)" font-family="sans-serif" stroke="none" xml:space="preserve"
      >score</text
    ></g
    ><g fill="rgb(255,255,255)" fill-opacity="0" transform="translate(620,360)" stroke-opacity="0" stroke="rgb(255,255,255)"
    ><rect x="0.5" width="158.5" height="48.5" y="0.5" clip-path="url(#clipPath8)" stroke="none"
    /></g
    ><g transform="translate(620.5,360.5)"
    ><rect fill="none" x="0.5" width="158.5" height="48.5" y="0.5" clip-path="url(#clipPath9)"
      /><text x="59" font-size="14" y="18.1094" clip-path="url(#clipPath9)" font-family="sans-serif" stroke="none" xml:space="preserve"
      >Game</text
      ><path fill="none" d="M1 24.1094 L159 24.1094" clip-path="url(#clipPath9)"
      /><text x="5" font-size="14" y="39.2188" clip-path="url(#clipPath9)" font-family="sans-serif" stroke="none" xml:space="preserve"
      >admin</text
    ></g
    ><g fill="rgb(255,255,255)" fill-opacity="0" transform="translate(930,500)" stroke-opacity="0" stroke="rgb(255,255,255)"
    ><rect x="0.5" width="158.5" height="28.5" y="0.5" clip-path="url(#clipPath10)" stroke="none"
    /></g
    ><g transform="translate(930.5,500.5)"
    ><rect fill="none" x="0.5" width="158.5" height="28.5" y="0.5" clip-path="url(#clipPath11)"
      /><text x="46" font-size="14" y="18.1094" clip-path="url(#clipPath11)" font-family="sans-serif" stroke="none" xml:space="preserve"
      >Database</text
    ></g
    ><g fill="rgb(255,255,255)" fill-opacity="0" transform="translate(930,360)" stroke-opacity="0" stroke="rgb(255,255,255)"
    ><rect x="0.5" width="158.5" height="28.5" y="0.5" clip-path="url(#clipPath10)" stroke="none"
    /></g
    ><g transform="translate(930.5,360.5)"
    ><rect fill="none" x="0.5" width="158.5" height="28.5" y="0.5" clip-path="url(#clipPath11)"
      /><text x="22" font-size="14" y="18.1094" clip-path="url(#clipPath11)" font-family="sans-serif" stroke="none" xml:space="preserve"
      >MegaTronServer</text
    ></g
    ><g fill="rgb(168,196,255)" fill-opacity="0.4902" transform="translate(700,30)" stroke-opacity="0.4902" stroke="rgb(168,196,255)"
    ><rect x="0.5" width="98.5" height="28.5" y="0.5" clip-path="url(#clipPath12)" stroke="none"
    /></g
    ><g transform="translate(700.5,30.5)"
    ><rect fill="none" x="0.5" width="98.5" height="28.5" y="0.5" clip-path="url(#clipPath13)"
      /><text x="22" font-size="14" y="18.1094" clip-path="url(#clipPath13)" font-family="sans-serif" stroke="none" xml:space="preserve"
      >Serveur</text
    ></g
    ><g fill="rgb(168,196,255)" fill-opacity="0.4902" transform="translate(210,20)" stroke-opacity="0.4902" stroke="rgb(168,196,255)"
    ><rect x="0.5" width="98.5" height="28.5" y="0.5" clip-path="url(#clipPath12)" stroke="none"
    /></g
    ><g transform="translate(210.5,20.5)"
    ><rect fill="none" x="0.5" width="98.5" height="28.5" y="0.5" clip-path="url(#clipPath13)"
      /><text x="29" font-size="14" y="18.1094" clip-path="url(#clipPath13)" font-family="sans-serif" stroke="none" xml:space="preserve"
      >Client</text
    ></g
    ><g fill="rgb(255,255,255)" fill-opacity="0" transform="translate(320,70)" stroke-opacity="0" stroke="rgb(255,255,255)"
    ><rect x="0.5" width="158.5" height="78.5" y="0.5" clip-path="url(#clipPath4)" stroke="none"
    /></g
    ><g transform="translate(320.5,70.5)"
    ><rect fill="none" x="0.5" width="158.5" height="78.5" y="0.5" clip-path="url(#clipPath5)"
      /><text x="58" font-size="14" y="18.1094" clip-path="url(#clipPath5)" font-family="sans-serif" stroke="none" xml:space="preserve"
      >Bonus</text
      ><path fill="none" d="M1 24.1094 L159 24.1094" clip-path="url(#clipPath5)"
      /><text x="5" font-size="14" y="39.2188" clip-path="url(#clipPath5)" font-family="sans-serif" stroke="none" xml:space="preserve"
      >name</text
      ><text x="5" font-size="14" y="55.3281" clip-path="url(#clipPath5)" font-family="sans-serif" stroke="none" xml:space="preserve"
      >effect</text
      ><text x="5" font-size="14" y="71.4375" clip-path="url(#clipPath5)" font-family="sans-serif" stroke="none" xml:space="preserve"
      >position</text
    ></g
    ><g fill="rgb(255,255,255)" fill-opacity="0" transform="translate(80,220)" stroke-opacity="0" stroke="rgb(255,255,255)"
    ><rect x="0.5" width="158.5" height="98.5" y="0.5" clip-path="url(#clipPath14)" stroke="none"
    /></g
    ><g transform="translate(80.5,220.5)"
    ><rect fill="none" x="0.5" width="158.5" height="98.5" y="0.5" clip-path="url(#clipPath15)"
      /><text x="54" font-size="14" y="18.1094" clip-path="url(#clipPath15)" font-family="sans-serif" stroke="none" xml:space="preserve"
      >Vehicle</text
      ><path fill="none" d="M1 24.1094 L159 24.1094" clip-path="url(#clipPath15)"
      /><text x="5" font-size="14" y="39.2188" clip-path="url(#clipPath15)" font-family="sans-serif" stroke="none" xml:space="preserve"
      >color</text
      ><text x="5" font-size="14" y="55.3281" clip-path="url(#clipPath15)" font-family="sans-serif" stroke="none" xml:space="preserve"
      >speed</text
      ><text x="5" font-size="14" y="71.4375" clip-path="url(#clipPath15)" font-family="sans-serif" stroke="none" xml:space="preserve"
      >direction</text
      ><text x="5" font-size="14" y="87.5469" clip-path="url(#clipPath15)" font-family="sans-serif" stroke="none" xml:space="preserve"
      >position</text
    ></g
    ><g fill="rgb(255,255,255)" fill-opacity="0" transform="translate(320,240)" stroke-opacity="0" stroke="rgb(255,255,255)"
    ><rect x="0.5" width="158.5" height="78.5" y="0.5" clip-path="url(#clipPath4)" stroke="none"
    /></g
    ><g transform="translate(320.5,240.5)"
    ><rect fill="none" x="0.5" width="158.5" height="78.5" y="0.5" clip-path="url(#clipPath5)"
      /><text x="65" font-size="14" y="18.1094" clip-path="url(#clipPath5)" font-family="sans-serif" stroke="none" xml:space="preserve"
      >Grid</text
      ><path fill="none" d="M1 24.1094 L159 24.1094" clip-path="url(#clipPath5)"
      /><text x="5" font-size="14" y="39.2188" clip-path="url(#clipPath5)" font-family="sans-serif" stroke="none" xml:space="preserve"
      >width</text
      ><text x="5" font-size="14" y="55.3281" clip-path="url(#clipPath5)" font-family="sans-serif" stroke="none" xml:space="preserve"
      >height</text
    ></g
    ><g fill="rgb(255,255,255)" fill-opacity="0" transform="translate(320,530)" stroke-opacity="0" stroke="rgb(255,255,255)"
    ><rect x="0.5" width="158.5" height="68.5" y="0.5" clip-path="url(#clipPath6)" stroke="none"
    /></g
    ><g transform="translate(320.5,530.5)"
    ><rect fill="none" x="0.5" width="158.5" height="68.5" y="0.5" clip-path="url(#clipPath7)"
      /><text x="57" font-size="14" y="18.1094" clip-path="url(#clipPath7)" font-family="sans-serif" stroke="none" xml:space="preserve"
      >Server</text
      ><path fill="none" d="M1 24.1094 L159 24.1094" clip-path="url(#clipPath7)"
      /><text x="5" font-size="14" y="39.2188" clip-path="url(#clipPath7)" font-family="sans-serif" stroke="none" xml:space="preserve"
      >hostname</text
      ><text x="5" font-size="14" y="55.3281" clip-path="url(#clipPath7)" font-family="sans-serif" stroke="none" xml:space="preserve"
      >port</text
    ></g
    ><g fill="rgb(255,255,255)" fill-opacity="0" transform="translate(320,410)" stroke-opacity="0" stroke="rgb(255,255,255)"
    ><rect x="0.5" width="158.5" height="28.5" y="0.5" clip-path="url(#clipPath10)" stroke="none"
    /></g
    ><g transform="translate(320.5,410.5)"
    ><rect fill="none" x="0.5" width="158.5" height="28.5" y="0.5" clip-path="url(#clipPath11)"
      /><text x="45" font-size="14" y="18.1094" clip-path="url(#clipPath11)" font-family="sans-serif" stroke="none" xml:space="preserve"
      >MegaTron</text
    ></g
    ><g fill="rgb(255,255,255)" fill-opacity="0" transform="translate(0,380)" stroke-opacity="0" stroke="rgb(255,255,255)"
    ><rect x="0.5" width="158.5" height="78.5" y="0.5" clip-path="url(#clipPath4)" stroke="none"
    /></g
    ><g transform="translate(0.5,380.5)"
    ><rect fill="none" x="0.5" width="158.5" height="78.5" y="0.5" clip-path="url(#clipPath5)"
      /><text x="58" font-size="14" y="18.1094" clip-path="url(#clipPath5)" font-family="sans-serif" stroke="none" xml:space="preserve"
      >Player</text
      ><path fill="none" d="M1 24.1094 L159 24.1094" clip-path="url(#clipPath5)"
      /><text x="5" font-size="14" y="39.2188" clip-path="url(#clipPath5)" font-family="sans-serif" stroke="none" xml:space="preserve"
      >name</text
      ><text x="5" font-size="14" y="55.3281" clip-path="url(#clipPath5)" font-family="sans-serif" stroke="none" xml:space="preserve"
      >id</text
      ><text x="5" font-size="14" y="71.4375" clip-path="url(#clipPath5)" font-family="sans-serif" stroke="none" xml:space="preserve"
      >score</text
    ></g
    ><g transform="translate(960,260)"
    ><path fill="none" d="M40.5 100.5 L40.5 10.5" clip-path="url(#clipPath16)"
      /><text x="44" font-size="14" y="84" clip-path="url(#clipPath16)" font-family="sans-serif" stroke="none" xml:space="preserve"
      >1</text
      ><text x="44" font-size="14" y="39.1094" clip-path="url(#clipPath16)" font-family="sans-serif" stroke="none" xml:space="preserve"
      >1..*</text
      ><text x="4.0635" font-size="14" y="52" clip-path="url(#clipPath16)" font-family="sans-serif" stroke="none" xml:space="preserve"
      >includes ▲</text
    ></g
    ><g transform="translate(960,380)"
    ><path fill="none" d="M40.5 120.5 L40.5 10.5" clip-path="url(#clipPath17)"
      /><text x="44" font-size="14" y="104" clip-path="url(#clipPath17)" font-family="sans-serif" stroke="none" xml:space="preserve"
      >1</text
      ><text x="44" font-size="14" y="39.1094" clip-path="url(#clipPath17)" font-family="sans-serif" stroke="none" xml:space="preserve"
      >1</text
      ><text x="4.0635" font-size="14" y="62" clip-path="url(#clipPath17)" font-family="sans-serif" stroke="none" xml:space="preserve"
      >includes ▼</text
    ></g
    ><g transform="translate(770,350)"
    ><path fill="none" d="M10.5 20.5 L160.5 20.5" clip-path="url(#clipPath18)"
      /><text x="29" font-size="14" y="34.1094" clip-path="url(#clipPath18)" font-family="sans-serif" stroke="none" xml:space="preserve"
      >0..*</text
      ><text x="133.9219" font-size="14" y="34.1094" clip-path="url(#clipPath18)" font-family="sans-serif" stroke="none" xml:space="preserve"
      >1</text
      ><text x="45.5259" font-size="14" y="17" clip-path="url(#clipPath18)" font-family="sans-serif" stroke="none" xml:space="preserve"
      >◄ manages</text
    ></g
    ><g transform="translate(770,490)"
    ><path fill="none" d="M10.5 20.5 L160.5 20.5" clip-path="url(#clipPath18)"
      /><text x="29" font-size="14" y="34.1094" clip-path="url(#clipPath18)" font-family="sans-serif" stroke="none" xml:space="preserve"
      >1..*</text
      ><text x="133.9219" font-size="14" y="34.1094" clip-path="url(#clipPath18)" font-family="sans-serif" stroke="none" xml:space="preserve"
      >1</text
      ><text x="46.8896" font-size="14" y="17" clip-path="url(#clipPath18)" font-family="sans-serif" stroke="none" xml:space="preserve"
      >stored in ►</text
    ></g
    ><g transform="translate(670,400)"
    ><path fill="none" d="M30.5 100.5 L30.5 10.5" clip-path="url(#clipPath19)"
      /><text x="34" font-size="14" y="84" clip-path="url(#clipPath19)" font-family="sans-serif" stroke="none" xml:space="preserve"
      >1..*</text
      ><text x="34" font-size="14" y="39.1094" clip-path="url(#clipPath19)" font-family="sans-serif" stroke="none" xml:space="preserve"
      >0..1</text
      ><text x="4.5811" font-size="14" y="52" clip-path="url(#clipPath19)" font-family="sans-serif" stroke="none" xml:space="preserve"
      >plays ▲</text
    ></g
    ><g transform="translate(680,260)"
    ><path fill="none" d="M20.5 100.5 L20.5 10.5" clip-path="url(#clipPath20)"
      /><text x="24" font-size="14" y="84" clip-path="url(#clipPath20)" font-family="sans-serif" stroke="none" xml:space="preserve"
      >0..*</text
      ><text x="24" font-size="14" y="39.1094" clip-path="url(#clipPath20)" font-family="sans-serif" stroke="none" xml:space="preserve"
      >1..*</text
      ><text x="0.6753" font-size="14" y="52" clip-path="url(#clipPath20)" font-family="sans-serif" stroke="none" xml:space="preserve"
      >has ▲</text
    ></g
    ><g transform="translate(780,220)"
    ><path fill="none" d="M10.5 20.5 L150.5 20.5" clip-path="url(#clipPath21)"
      /><text x="29" font-size="14" y="34.1094" clip-path="url(#clipPath21)" font-family="sans-serif" stroke="none" xml:space="preserve"
      >0..*</text
      ><text x="123.9219" font-size="14" y="34.1094" clip-path="url(#clipPath21)" font-family="sans-serif" stroke="none" xml:space="preserve"
      >1</text
      ><text x="60.6753" font-size="14" y="17" clip-path="url(#clipPath21)" font-family="sans-serif" stroke="none" xml:space="preserve"
      >has ►</text
    ></g
    ><g transform="translate(680,70)"
    ><path fill="none" d="M30.5 140.5 L30.5 10.5" clip-path="url(#clipPath22)"
      /><path fill="none" d="M30.5 10.5 L250.5 10.5" clip-path="url(#clipPath22)"
      /><text x="34" font-size="14" y="124" clip-path="url(#clipPath22)" font-family="sans-serif" stroke="none" xml:space="preserve"
      >0..*</text
      ><text x="206.5361" font-size="14" y="24.1094" clip-path="url(#clipPath22)" font-family="sans-serif" stroke="none" xml:space="preserve"
      >0..*</text
      ><text x="1.0034" font-size="14" y="72" clip-path="url(#clipPath22)" font-family="sans-serif" stroke="none" xml:space="preserve"
      >allows ▲</text
    ></g
    ><g transform="translate(120,100)"
    ><path fill="none" d="M60.5 120.5 L60.5 10.5" clip-path="url(#clipPath23)"
      /><path fill="none" d="M60.5 10.5 L200.5 10.5" clip-path="url(#clipPath23)"
      /><text x="64" font-size="14" y="104" clip-path="url(#clipPath23)" font-family="sans-serif" stroke="none" xml:space="preserve"
      >1..*</text
      ><text x="156.5361" font-size="14" y="24.1094" clip-path="url(#clipPath23)" font-family="sans-serif" stroke="none" xml:space="preserve"
      >0..*</text
      ><text x="3.7236" font-size="14" y="62" clip-path="url(#clipPath23)" font-family="sans-serif" stroke="none" xml:space="preserve"
      >has effects on ▼</text
    ></g
    ><g transform="translate(10,260)"
    ><path fill="none" d="M30.5 120.5 L30.5 10.5" clip-path="url(#clipPath17)"
      /><path fill="none" d="M30.5 10.5 L70.5 10.5" clip-path="url(#clipPath17)"
      /><text x="34" font-size="14" y="104" clip-path="url(#clipPath17)" font-family="sans-serif" stroke="none" xml:space="preserve"
      >1</text
      ><text x="43.9219" font-size="14" y="24.1094" clip-path="url(#clipPath17)" font-family="sans-serif" stroke="none" xml:space="preserve"
      >1</text
      ><text x="-0.1494" font-size="14" y="62" clip-path="url(#clipPath17)" font-family="sans-serif" stroke="none" xml:space="preserve"
      >moves ▲</text
    ></g
    ><g transform="translate(360,140)"
    ><path fill="none" d="M40.5 100.5 L40.5 10.5" clip-path="url(#clipPath16)"
      /><text x="44" font-size="14" y="84" clip-path="url(#clipPath16)" font-family="sans-serif" stroke="none" xml:space="preserve"
      >1</text
      ><text x="44" font-size="14" y="39.1094" clip-path="url(#clipPath16)" font-family="sans-serif" stroke="none" xml:space="preserve"
      >0..*</text
      ><text x="4.0635" font-size="14" y="52" clip-path="url(#clipPath16)" font-family="sans-serif" stroke="none" xml:space="preserve"
      >includes ▲</text
    ></g
    ><g transform="translate(170,310)"
    ><path fill="none" d="M190.5 100.5 L190.5 60.5" clip-path="url(#clipPath24)"
      /><path fill="none" d="M190.5 60.5 L10.5 60.5" clip-path="url(#clipPath24)"
      /><path fill="none" d="M10.5 60.5 L10.5 10.5" clip-path="url(#clipPath24)"
      /><text x="194" font-size="14" y="84" clip-path="url(#clipPath24)" font-family="sans-serif" stroke="none" xml:space="preserve"
      >1</text
      ><text x="14" font-size="14" y="39.1094" clip-path="url(#clipPath24)" font-family="sans-serif" stroke="none" xml:space="preserve"
      >1..*</text
      ><text x="63.749" font-size="14" y="57" clip-path="url(#clipPath24)" font-family="sans-serif" stroke="none" xml:space="preserve"
      >◄ includes</text
    ></g
    ><g transform="translate(360,310)"
    ><path fill="none" d="M40.5 100.5 L40.5 10.5" clip-path="url(#clipPath16)"
      /><text x="4.0635" font-size="14" y="52" clip-path="url(#clipPath16)" font-family="sans-serif" stroke="none" xml:space="preserve"
      >includes ▲</text
    ></g
    ><g transform="translate(360,430)"
    ><path fill="none" d="M40.5 100.5 L40.5 10.5" clip-path="url(#clipPath16)"
      /><text x="4.2075" font-size="14" y="52" clip-path="url(#clipPath16)" font-family="sans-serif" stroke="none" xml:space="preserve"
      >requires ▼</text
    ></g
    ><g transform="translate(150,400)"
    ><path fill="none" d="M10.5 20.5 L170.5 20.5" clip-path="url(#clipPath25)"
      /><text x="29" font-size="14" y="34.1094" clip-path="url(#clipPath25)" font-family="sans-serif" stroke="none" xml:space="preserve"
      >1</text
      ><text x="143.9219" font-size="14" y="34.1094" clip-path="url(#clipPath25)" font-family="sans-serif" stroke="none" xml:space="preserve"
      >1</text
      ><text x="64.5811" font-size="14" y="17" clip-path="url(#clipPath25)" font-family="sans-serif" stroke="none" xml:space="preserve"
      >plays ►</text
    ></g
  ></g
></svg
>
