<?xml version="1.0" encoding="UTF-8"?>
<!DOCTYPE svg PUBLIC '-//W3C//DTD SVG 1.0//EN'
          'http://www.w3.org/TR/2001/REC-SVG-20010904/DTD/svg10.dtd'>
<svg fill-opacity="1" xmlns:xlink="http://www.w3.org/1999/xlink" color-rendering="auto" color-interpolation="auto" text-rendering="auto" stroke="black" stroke-linecap="square" width="610" stroke-miterlimit="10" shape-rendering="auto" stroke-opacity="1" fill="black" stroke-dasharray="none" font-weight="normal" stroke-width="1" viewBox="120 -20 610 670" height="670" xmlns="http://www.w3.org/2000/svg" font-family="&apos;Dialog&apos;" font-style="normal" stroke-linejoin="miter" font-size="12" stroke-dashoffset="0" image-rendering="auto"
><!--Generated by the Batik Graphics2D SVG Generator--><defs id="genericDefs"
  /><g
  ><defs id="defs1"
    ><clipPath clipPathUnits="userSpaceOnUse" id="clipPath1"
      ><path d="M0 0 L2147483647 0 L2147483647 2147483647 L0 2147483647 L0 0 Z"
      /></clipPath
      ><clipPath clipPathUnits="userSpaceOnUse" id="clipPath2"
      ><path d="M0 0 L0 30 L160 30 L160 0 Z"
      /></clipPath
      ><clipPath clipPathUnits="userSpaceOnUse" id="clipPath3"
      ><path d="M-0.5 -0.5 L-0.5 29.5 L159.5 29.5 L159.5 -0.5 Z"
      /></clipPath
      ><clipPath clipPathUnits="userSpaceOnUse" id="clipPath4"
      ><path d="M0 0 L0 80 L160 80 L160 0 Z"
      /></clipPath
      ><clipPath clipPathUnits="userSpaceOnUse" id="clipPath5"
      ><path d="M-0.5 -0.5 L-0.5 79.5 L159.5 79.5 L159.5 -0.5 Z"
      /></clipPath
      ><clipPath clipPathUnits="userSpaceOnUse" id="clipPath6"
      ><path d="M0 0 L0 180 L160 180 L160 0 Z"
      /></clipPath
      ><clipPath clipPathUnits="userSpaceOnUse" id="clipPath7"
      ><path d="M-0.5 -0.5 L-0.5 179.5 L159.5 179.5 L159.5 -0.5 Z"
      /></clipPath
      ><clipPath clipPathUnits="userSpaceOnUse" id="clipPath8"
      ><path d="M0 0 L0 30 L100 30 L100 0 Z"
      /></clipPath
      ><clipPath clipPathUnits="userSpaceOnUse" id="clipPath9"
      ><path d="M-0.5 -0.5 L-0.5 29.5 L99.5 29.5 L99.5 -0.5 Z"
      /></clipPath
      ><clipPath clipPathUnits="userSpaceOnUse" id="clipPath10"
      ><path d="M0 0 L0 120 L180 120 L180 0 Z"
      /></clipPath
      ><clipPath clipPathUnits="userSpaceOnUse" id="clipPath11"
      ><path d="M0 0 L0 90 L180 90 L180 0 Z"
      /></clipPath
      ><clipPath clipPathUnits="userSpaceOnUse" id="clipPath12"
      ><path d="M0 0 L0 90 L160 90 L160 0 Z"
      /></clipPath
      ><clipPath clipPathUnits="userSpaceOnUse" id="clipPath13"
      ><path d="M0 0 L0 70 L120 70 L120 0 Z"
      /></clipPath
      ><clipPath clipPathUnits="userSpaceOnUse" id="clipPath14"
      ><path d="M0 0 L0 170 L70 170 L70 0 Z"
      /></clipPath
      ><clipPath clipPathUnits="userSpaceOnUse" id="clipPath15"
      ><path d="M0 0 L0 180 L90 180 L90 0 Z"
      /></clipPath
      ><clipPath clipPathUnits="userSpaceOnUse" id="clipPath16"
      ><path d="M0 0 L0 70 L150 70 L150 0 Z"
      /></clipPath
      ><clipPath clipPathUnits="userSpaceOnUse" id="clipPath17"
      ><path d="M0 0 L0 50 L280 50 L280 0 Z"
      /></clipPath
      ><clipPath clipPathUnits="userSpaceOnUse" id="clipPath18"
      ><path d="M0 0 L0 130 L70 130 L70 0 Z"
      /></clipPath
      ><clipPath clipPathUnits="userSpaceOnUse" id="clipPath19"
      ><path d="M0 0 L0 70 L360 70 L360 0 Z"
      /></clipPath
    ></defs
    ><g fill="rgb(255,255,255)" fill-opacity="0" transform="translate(350,310)" stroke-opacity="0" stroke="rgb(255,255,255)"
    ><rect x="0.5" width="158.5" height="28.5" y="0.5" clip-path="url(#clipPath2)" stroke="none"
    /></g
    ><g transform="translate(350.5,310.5)"
    ><rect fill="none" x="0.5" width="158.5" height="28.5" y="0.5" clip-path="url(#clipPath3)"
      /><text x="34" font-size="14" y="18.1094" clip-path="url(#clipPath3)" font-family="sans-serif" stroke="none" xml:space="preserve"
      >GameThread</text
    ></g
    ><g fill="rgb(255,255,255)" fill-opacity="0" transform="translate(350,500)" stroke-opacity="0" stroke="rgb(255,255,255)"
    ><rect x="0.5" width="158.5" height="28.5" y="0.5" clip-path="url(#clipPath2)" stroke="none"
    /></g
    ><g transform="translate(350.5,500.5)"
    ><rect fill="none" x="0.5" width="158.5" height="28.5" y="0.5" clip-path="url(#clipPath3)"
      /><text x="35" font-size="14" y="18.1094" clip-path="url(#clipPath3)" font-family="sans-serif" stroke="none" xml:space="preserve"
      >ClientThread</text
    ></g
    ><g fill="rgb(255,255,255)" fill-opacity="0" transform="translate(550,190)" stroke-opacity="0" stroke="rgb(255,255,255)"
    ><rect x="0.5" width="158.5" height="78.5" y="0.5" clip-path="url(#clipPath4)" stroke="none"
    /></g
    ><g transform="translate(550.5,190.5)"
    ><rect fill="none" x="0.5" width="158.5" height="78.5" y="0.5" clip-path="url(#clipPath5)"
      /><text x="65" font-size="14" y="18.1094" clip-path="url(#clipPath5)" font-family="sans-serif" stroke="none" xml:space="preserve"
      >Map</text
      ><path fill="none" d="M1 24.1094 L159 24.1094" clip-path="url(#clipPath5)"
      /><text x="5" font-size="14" y="39.2188" clip-path="url(#clipPath5)" font-family="sans-serif" stroke="none" xml:space="preserve"
      >width</text
      ><text x="5" font-size="14" y="55.3281" clip-path="url(#clipPath5)" font-family="sans-serif" stroke="none" xml:space="preserve"
      >height</text
      ><text x="5" font-size="14" y="71.4375" clip-path="url(#clipPath5)" font-family="sans-serif" stroke="none" xml:space="preserve"
      >content</text
    ></g
    ><g fill="rgb(255,255,255)" fill-opacity="0" transform="translate(140,550)" stroke-opacity="0" stroke="rgb(255,255,255)"
    ><rect x="0.5" width="158.5" height="78.5" y="0.5" clip-path="url(#clipPath4)" stroke="none"
    /></g
    ><g transform="translate(140.5,550.5)"
    ><rect fill="none" x="0.5" width="158.5" height="78.5" y="0.5" clip-path="url(#clipPath5)"
      /><text x="59" font-size="14" y="18.1094" clip-path="url(#clipPath5)" font-family="sans-serif" stroke="none" xml:space="preserve"
      >Client</text
      ><path fill="none" d="M1 24.1094 L159 24.1094" clip-path="url(#clipPath5)"
      /><text x="5" font-size="14" y="39.2188" clip-path="url(#clipPath5)" font-family="sans-serif" stroke="none" xml:space="preserve"
      >name</text
      ><text x="5" font-size="14" y="55.3281" clip-path="url(#clipPath5)" font-family="sans-serif" stroke="none" xml:space="preserve"
      >id</text
      ><text x="5" font-size="14" y="71.4375" clip-path="url(#clipPath5)" font-family="sans-serif" stroke="none" xml:space="preserve"
      >score</text
    ></g
    ><g fill="rgb(255,255,255)" fill-opacity="0" transform="translate(150,270)" stroke-opacity="0" stroke="rgb(255,255,255)"
    ><rect x="0.5" width="158.5" height="178.5" y="0.5" clip-path="url(#clipPath6)" stroke="none"
    /></g
    ><g transform="translate(150.5,270.5)"
    ><rect fill="none" x="0.5" width="158.5" height="178.5" y="0.5" clip-path="url(#clipPath7)"
      /><text x="59" font-size="14" y="18.1094" clip-path="url(#clipPath7)" font-family="sans-serif" stroke="none" xml:space="preserve"
      >Game</text
      ><path fill="none" d="M1 24.1094 L159 24.1094" clip-path="url(#clipPath7)"
      /><text x="5" font-size="14" y="39.2188" clip-path="url(#clipPath7)" font-family="sans-serif" stroke="none" xml:space="preserve"
      >Game</text
      ><path fill="none" d="M1 45.2188 L159 45.2188" clip-path="url(#clipPath7)"
      /><text x="5" font-size="14" y="60.3281" clip-path="url(#clipPath7)" font-family="sans-serif" stroke="none" xml:space="preserve"
      >creator</text
      ><text x="5" font-size="14" y="76.4375" clip-path="url(#clipPath7)" font-family="sans-serif" stroke="none" xml:space="preserve"
      >name</text
      ><text x="5" font-size="14" y="92.5469" clip-path="url(#clipPath7)" font-family="sans-serif" stroke="none" xml:space="preserve"
      >nb_max_players</text
      ><text x="5" font-size="14" y="108.6562" clip-path="url(#clipPath7)" font-family="sans-serif" stroke="none" xml:space="preserve"
      >type</text
      ><text x="5" font-size="14" y="124.7656" clip-path="url(#clipPath7)" font-family="sans-serif" stroke="none" xml:space="preserve"
      >map</text
      ><text x="5" font-size="14" y="140.875" clip-path="url(#clipPath7)" font-family="sans-serif" stroke="none" xml:space="preserve"
      >password</text
      ><text x="5" font-size="14" y="156.9844" clip-path="url(#clipPath7)" font-family="sans-serif" stroke="none" xml:space="preserve"
      >players</text
      ><text x="5" font-size="14" y="173.0938" clip-path="url(#clipPath7)" font-family="sans-serif" stroke="none" xml:space="preserve"
      >isRunning</text
    ></g
    ><g fill="rgb(255,255,255)" fill-opacity="0" transform="translate(550,590)" stroke-opacity="0" stroke="rgb(255,255,255)"
    ><rect x="0.5" width="158.5" height="28.5" y="0.5" clip-path="url(#clipPath2)" stroke="none"
    /></g
    ><g transform="translate(550.5,590.5)"
    ><rect fill="none" x="0.5" width="158.5" height="28.5" y="0.5" clip-path="url(#clipPath3)"
      /><text x="46" font-size="14" y="18.1094" clip-path="url(#clipPath3)" font-family="sans-serif" stroke="none" xml:space="preserve"
      >Database</text
    ></g
    ><g fill="rgb(255,255,255)" fill-opacity="0" transform="translate(550,410)" stroke-opacity="0" stroke="rgb(255,255,255)"
    ><rect x="0.5" width="158.5" height="28.5" y="0.5" clip-path="url(#clipPath2)" stroke="none"
    /></g
    ><g transform="translate(550.5,410.5)"
    ><rect fill="none" x="0.5" width="158.5" height="28.5" y="0.5" clip-path="url(#clipPath3)"
      /><text x="25" font-size="14" y="18.1094" clip-path="url(#clipPath3)" font-family="sans-serif" stroke="none" xml:space="preserve"
      >MultitronServer</text
    ></g
    ><g fill="rgb(168,196,255)" fill-opacity="0.4902" transform="translate(220,0)" stroke-opacity="0.4902" stroke="rgb(168,196,255)"
    ><rect x="0.5" width="98.5" height="28.5" y="0.5" clip-path="url(#clipPath8)" stroke="none"
    /></g
    ><g transform="translate(220.5,0.5)"
    ><rect fill="none" x="0.5" width="98.5" height="28.5" y="0.5" clip-path="url(#clipPath9)"
      /><text x="22" font-size="14" y="18.1094" clip-path="url(#clipPath9)" font-family="sans-serif" stroke="none" xml:space="preserve"
      >Serveur</text
    ></g
    ><g transform="translate(390,330)"
    ><path fill="none" d="M40.5 10.5 L40.5 90.5" clip-path="url(#clipPath10)"
      /><path fill="none" d="M40.5 90.5 L160.5 90.5" clip-path="url(#clipPath10)"
      /><text x="44" font-size="14" y="39.1094" clip-path="url(#clipPath10)" font-family="sans-serif" stroke="none" xml:space="preserve"
      >0..*</text
      ><text x="133.9219" font-size="14" y="104.1094" clip-path="url(#clipPath10)" font-family="sans-serif" stroke="none" xml:space="preserve"
      >1</text
      ><text x="1.7256" font-size="14" y="47" clip-path="url(#clipPath10)" font-family="sans-serif" stroke="none" xml:space="preserve"
      >launches ▲</text
    ></g
    ><g transform="translate(420,430)"
    ><path fill="none" d="M10.5 70.5 L10.5 30.5" clip-path="url(#clipPath11)"
      /><path fill="none" d="M10.5 30.5 L160.5 30.5" clip-path="url(#clipPath11)"
      /><path fill="none" d="M160.5 30.5 L160.5 10.5" clip-path="url(#clipPath11)"
      /><text x="14" font-size="14" y="54" clip-path="url(#clipPath11)" font-family="sans-serif" stroke="none" xml:space="preserve"
      >0..*</text
      ><text x="164" font-size="14" y="39.1094" clip-path="url(#clipPath11)" font-family="sans-serif" stroke="none" xml:space="preserve"
      >1</text
      ><text x="46.7256" font-size="14" y="27" clip-path="url(#clipPath11)" font-family="sans-serif" stroke="none" xml:space="preserve"
      >launches ▼</text
    ></g
    ><g transform="translate(450,520)"
    ><path fill="none" d="M140.5 70.5 L140.5 40.5" clip-path="url(#clipPath12)"
      /><path fill="none" d="M140.5 40.5 L10.5 40.5" clip-path="url(#clipPath12)"
      /><path fill="none" d="M10.5 40.5 L10.5 10.5" clip-path="url(#clipPath12)"
      /><text x="144" font-size="14" y="54" clip-path="url(#clipPath12)" font-family="sans-serif" stroke="none" xml:space="preserve"
      >1</text
      ><text x="14" font-size="14" y="39.1094" clip-path="url(#clipPath12)" font-family="sans-serif" stroke="none" xml:space="preserve"
      >1</text
      ><text x="35.5259" font-size="14" y="37" clip-path="url(#clipPath12)" font-family="sans-serif" stroke="none" xml:space="preserve"
      >◄ manages</text
    ></g
    ><g transform="translate(290,520)"
    ><path fill="none" d="M10.5 40.5 L100.5 40.5" clip-path="url(#clipPath13)"
      /><path fill="none" d="M100.5 40.5 L100.5 10.5" clip-path="url(#clipPath13)"
      /><text x="29" font-size="14" y="54.1094" clip-path="url(#clipPath13)" font-family="sans-serif" stroke="none" xml:space="preserve"
      >1</text
      ><text x="104" font-size="14" y="39.1094" clip-path="url(#clipPath13)" font-family="sans-serif" stroke="none" xml:space="preserve"
      >1</text
      ><text x="15.5259" font-size="14" y="37" clip-path="url(#clipPath13)" font-family="sans-serif" stroke="none" xml:space="preserve"
      >◄ manages</text
    ></g
    ><g transform="translate(590,260)"
    ><path fill="none" d="M30.5 150.5 L30.5 10.5" clip-path="url(#clipPath14)"
      /><text x="34" font-size="14" y="134" clip-path="url(#clipPath14)" font-family="sans-serif" stroke="none" xml:space="preserve"
      >1</text
      ><text x="34" font-size="14" y="39.1094" clip-path="url(#clipPath14)" font-family="sans-serif" stroke="none" xml:space="preserve"
      >1..*</text
      ><text x="4.4644" font-size="14" y="77" clip-path="url(#clipPath14)" font-family="sans-serif" stroke="none" xml:space="preserve"
      >loads ▲</text
    ></g
    ><g transform="translate(580,430)"
    ><path fill="none" d="M40.5 160.5 L40.5 10.5" clip-path="url(#clipPath15)"
      /><text x="44" font-size="14" y="144" clip-path="url(#clipPath15)" font-family="sans-serif" stroke="none" xml:space="preserve"
      >1</text
      ><text x="44" font-size="14" y="39.1094" clip-path="url(#clipPath15)" font-family="sans-serif" stroke="none" xml:space="preserve"
      >1</text
      ><text x="4.0635" font-size="14" y="82" clip-path="url(#clipPath15)" font-family="sans-serif" stroke="none" xml:space="preserve"
      >includes ▼</text
    ></g
    ><g transform="translate(300,260)"
    ><path fill="none" d="M10.5 20.5 L130.5 20.5" clip-path="url(#clipPath16)"
      /><path fill="none" d="M130.5 20.5 L130.5 50.5" clip-path="url(#clipPath16)"
      /><text x="29" font-size="14" y="34.1094" clip-path="url(#clipPath16)" font-family="sans-serif" stroke="none" xml:space="preserve"
      >1</text
      ><text x="134" font-size="14" y="34" clip-path="url(#clipPath16)" font-family="sans-serif" stroke="none" xml:space="preserve"
      >1</text
      ><text x="30.5259" font-size="14" y="17" clip-path="url(#clipPath16)" font-family="sans-serif" stroke="none" xml:space="preserve"
      >◄ manages</text
    ></g
    ><g transform="translate(290,580)"
    ><path fill="none" d="M10.5 20.5 L260.5 20.5" clip-path="url(#clipPath17)"
      /><text x="29" font-size="14" y="34.1094" clip-path="url(#clipPath17)" font-family="sans-serif" stroke="none" xml:space="preserve"
      >1..*</text
      ><text x="233.9219" font-size="14" y="34.1094" clip-path="url(#clipPath17)" font-family="sans-serif" stroke="none" xml:space="preserve"
      >1</text
      ><text x="96.8896" font-size="14" y="17" clip-path="url(#clipPath17)" font-family="sans-serif" stroke="none" xml:space="preserve"
      >stored in ►</text
    ></g
    ><g transform="translate(190,440)"
    ><path fill="none" d="M30.5 110.5 L30.5 10.5" clip-path="url(#clipPath18)"
      /><text x="34" font-size="14" y="94" clip-path="url(#clipPath18)" font-family="sans-serif" stroke="none" xml:space="preserve"
      >1..*</text
      ><text x="34" font-size="14" y="39.1094" clip-path="url(#clipPath18)" font-family="sans-serif" stroke="none" xml:space="preserve"
      >0..1</text
      ><text x="4.5811" font-size="14" y="57" clip-path="url(#clipPath18)" font-family="sans-serif" stroke="none" xml:space="preserve"
      >plays ▲</text
    ></g
    ><g transform="translate(210,220)"
    ><path fill="none" d="M20.5 50.5 L20.5 10.5" clip-path="url(#clipPath19)"
      /><path fill="none" d="M20.5 10.5 L340.5 10.5" clip-path="url(#clipPath19)"
      /><text x="24" font-size="14" y="34" clip-path="url(#clipPath19)" font-family="sans-serif" stroke="none" xml:space="preserve"
      >0..*</text
      ><text x="313.9219" font-size="14" y="24.1094" clip-path="url(#clipPath19)" font-family="sans-serif" stroke="none" xml:space="preserve"
      >1</text
      ><text x="0.6753" font-size="14" y="27" clip-path="url(#clipPath19)" font-family="sans-serif" stroke="none" xml:space="preserve"
      >has ►</text
    ></g
  ></g
></svg
>
